a2munge User Guide
…
The a2munge functions follow this pattern to allow the user to scale to distributed pipelines from base R without significant changes to the code. Thus a2munge supports in memory and distributed data pipeline development.

Functions following this pattern are tested for method equality. Ie - the spark and R methods are tested to ensure they produce the same output. In a few cases (such as Roller), the R method has a few more features than the spark method.

The foundation of the a2munge spark methods rest on top of sparklyr’s spark based methods for dplyr verbs. This allows for the basic dplyr syntax to extend to tbl_spark objects. Ie - the mutate functions operates in a similar way for both base R data.frames as it does for spark tbl_spark objects. However it is very important to understand that a2munge spark methods are using the sparklyr package to execute either HIVE UDFs or UDFs registered in Scala from R. Here are a few important links when developing new a2munge spark methods:

Hive UDFs7: Reference for Hive UDFs that can be executed in spark based methods

Sparklyr Extensions8: sparklyr guide for creating extensions with Scala

The implication is that while mutate might behavior in a similar fashion the functional logic may differ. There there is some overlap between base R syntax and Hive UDFs, however, most R functionality will not execute on spark objects as is. This is especially true for R packages. Below are a few examples where the code is consistent and where it differs

# Example R data.frame 
sim_df
#> # A tibble: 2,000 x 7
#>    index    id date       cat1  cat2  metric1 metric2
#>    <int> <int> <date>     <chr> <chr>   <int>   <dbl>
#>  1     1     9 2018-05-26 A     X           1    50.5
#>  2     2     7 2018-04-24 A     X           7    51.9
#>  3     3     8 2018-01-26 A     Y           6    50.4
#>  4     4     9 2018-07-27 B     W           7    52.2
#>  5     5     5 2018-12-14 A     W           5    57.5
#>  6     6     4 2018-12-01 A     Z           4    44.4
#>  7     7     3 2018-01-07 A     Y           2    48.0
#>  8     8     1 2018-08-03 A     X           3    45.9
#>  9     9     3 2018-01-15 A     W           3    47.8
#> 10    10     9 2018-02-03 A     V           1    50.3
#> # ... with 1,990 more rows
…
