a2munge User Guide
…
id: integer type. Corresponds to unique identifier field such as unique device id or customer id

date: date type. Dates from past 90 days

cat1: character type. Arbitrary attribute column with 2 distinct values of weighted probability

cat2: character type. Arbitrary attribute column with 5 distinct values of weighted probability

metric1: numeric type. Arbitrary numeric column with integer values of 1:5

metric2: numeric type. Arbitrary numeric column with random values center at 50

# R Dataset
df
#> # A tibble: 10,000 x 6
#>       id date       cat1  cat2  metric1 metric2
#>    <dbl> <date>     <chr> <chr>   <int>   <dbl>
#>  1   101 2018-09-15 A     V           4    52.2
#>  2   101 2018-08-29 A     X           2    46.3
#>  3   101 2018-10-12 A     W           5    54.4
#>  4   101 2018-10-11 B     V           5    45.9
#>  5   101 2018-11-11 A     V           3    55.4
#>  6   101 2018-09-24 A     Y           1    43.5
#>  7   101 2018-10-11 B     V           2    55.1
#>  8   101 2018-08-30 A     W           5    45.9
#>  9   101 2018-10-21 A     X           5    51.6
#> 10   101 2018-11-23 A     X           1    51.8
#> # ... with 9,990 more rows

Manipulators

The first set of functions are data manipulator: functions to aggregate or add new columns as functions of other columns

Summariser

The summariser function aggregates a dataset based on combination of grouping variables, measure variables and function. In the following chuck, a simple aggregation is applied on both R and Spark datasets using the same combination of arguments.

# Simple Summariser R Ex
summariser(df,
           group_vars   = c("id", "cat1"),
           measure_vars = c("metric1", "metric2"),
           fun          = c("mean", "sum"))
#> # A tibble: 200 x 6
#>       id cat1  metric1_mean metric2_mean metric1_sum metric2_sum
#>    <dbl> <chr>        <dbl>        <dbl>       <int>       <dbl>
#>  1   101 A             3.11         49.1         218       3435.
#>  2   101 B             2.93         51.1          88       1534.
#>  3   102 A             3.06         50.5         242       3992.
#>  4   102 B             3.33         50.6          70       1063.
#>  5   103 A             2.98         50.3         238       4021.
#>  6   103 B             2.8          49.8          56        996.
#>  7   104 A             3.2          50.5         256       4043.
#>  8   104 B             3            51.1          60       1022.
#>  9   105 A             3            49.7         219       3632.
#> 10   105 B             3.15         48.7          85       1316.
#> # ... with 190 more rows
…
               map = list(
                 list(
                   group_vars   = c("cat1"),
                   measure_vars = c("metric1"),
                   fun          = c("sum")
                 ),
                 list(
                   group_vars   = c("cat2"),
                   measure_vars = c("metric2"),
                   fun          = c("mean")
                 )
               )
) %>% 
  as.tibble()
#> # A tibble: 100 x 8
#>       id cat1_A_metric1_~ cat1_B_metric1_~ cat2_V_metric2_~
#>    <dbl>            <int>            <int>            <dbl>
#>  1   101              218               88             49.9
#>  2   102              242               70             51.5
#>  3   103              238               56             50.6
#>  4   104              256               60             50.3
#>  5   105              219               85             49.8
#>  6   106              225               67             49.4
#>  7   107              228               75             49.9
#>  8   108              240               86             51.2
#>  9   109              218               65             50.1
#> 10   110              228               74             51.0
#> # ... with 90 more rows, and 4 more variables: cat2_W_metric2_mean <dbl>,
#> #   cat2_X_metric2_mean <dbl>, cat2_Y_metric2_mean <dbl>,
#> #   cat2_Z_metric2_mean <dbl>

Mutater

The mutater function allows for calculated fields to be added to a dataset. Mutater allows for ordering for cumulative calculations and grouping.

In the first example, the log of metric2 is calculated by id and added to the dataset. In the second example, the cumulative sum of metric2 is calculated by date per id and added to the dataset

# Simple mutater ex:
mutater(df,
        group_vars   = "id",
        measure_vars = "metric1",
        fun          = "log")
#> # A tibble: 10,000 x 7
#>       id date       cat1  cat2  metric1 metric2 metric1_log
#>    <dbl> <date>     <chr> <chr>   <int>   <dbl>       <dbl>
#>  1   101 2018-09-15 A     V           4    52.2       1.39 
#>  2   101 2018-08-29 A     X           2    46.3       0.693
#>  3   101 2018-10-12 A     W           5    54.4       1.61 
#>  4   101 2018-10-11 B     V           5    45.9       1.61 
#>  5   101 2018-11-11 A     V           3    55.4       1.10 
#>  6   101 2018-09-24 A     Y           1    43.5       0    
#>  7   101 2018-10-11 B     V           2    55.1       0.693
#>  8   101 2018-08-30 A     W           5    45.9       1.61 
#>  9   101 2018-10-21 A     X           5    51.6       1.61 
#> 10   101 2018-11-23 A     X           1    51.8       0    
#> # ... with 9,990 more rows

# Ordered mutater ex:
mutater(df,
        order_vars   = "date",
        group_vars   = "id",
        measure_vars = "metric2",
        fun          = "cumsum") %>% 
  arrange(id, date)
#> # A tibble: 10,000 x 7
#>       id date       cat1  cat2  metric1 metric2 metric2_cumsum
#>    <dbl> <date>     <chr> <chr>   <int>   <dbl>          <dbl>
#>  1   101 2018-08-29 A     X           2    46.3           46.3
#>  2   101 2018-08-29 B     X           4    57.2          103. 
#>  3   101 2018-08-30 A     W           5    45.9          149. 
#>  4   101 2018-08-30 B     V           1    47.8          197. 
#>  5   101 2018-08-30 A     V           4    47.7          245. 
#>  6   101 2018-09-01 A     W           4    48.4          293. 
#>  7   101 2018-09-03 A     V           3    48.0          341. 
#>  8   101 2018-09-04 A     W           4    48.5          390. 
#>  9   101 2018-09-04 A     X           4    48.2          438. 
#> 10   101 2018-09-05 B     W           2    52.7          491. 
#> # ... with 9,990 more rows

Roller

Roller is similar to mutater but allows for rolling (window) calculations. The width argument specifies the window width. The R API differs slightly from the Spark API allowing for additional arguments for by (sequence by input) and partial (calculate on windows smaller than width) arguments.

# Roller example with summariser first step
df_agg <- summariser(df,
                     group_vars   = "date",
                     measure_vars = c("metric1", "metric2"),
                     fun          = "sum") 
df_agg
#> # A tibble: 90 x 3
#>    date       metric1_sum metric2_sum
#>    <date>           <int>       <dbl>
#>  1 2018-08-29         321       5283.
#>  2 2018-08-30         281       4743.
#>  3 2018-08-31         298       5626.
#>  4 2018-09-01         378       6334.
#>  5 2018-09-02         364       5987.
#>  6 2018-09-03         342       5822.
#>  7 2018-09-04         367       5843.
#>  8 2018-09-05         334       5541.
#>  9 2018-09-06         357       6069.
#> 10 2018-09-07         251       4557.
#> # ... with 80 more rows

# Rolling 7 day average
roller(df_agg,
       order_vars   = "date",
       measure_vars = c("metric1_sum", "metric2_sum"),
       fun          = "mean",
       width        = 7)
#> # A tibble: 90 x 5
#>    date       metric1_sum metric2_sum metric1_sum_7w_me~ metric2_sum_7w_m~
#>    <date>           <int>       <dbl>              <dbl>             <dbl>
#>  1 2018-08-29         321       5283.               321              5283.
#>  2 2018-08-30         281       4743.               301              5013.
#>  3 2018-08-31         298       5626.               300              5218.
#>  4 2018-09-01         378       6334.               320.             5497.
#>  5 2018-09-02         364       5987.               328.             5595.
#>  6 2018-09-03         342       5822.               331.             5633.
#>  7 2018-09-04         367       5843.               336.             5663.
#>  8 2018-09-05         334       5541.               338.             5700.
#>  9 2018-09-06         357       6069.               349.             5889.
#> 10 2018-09-07         251       4557.               342.             5736.
#> # ... with 80 more rows

Lagger

Lagger is also similar to mutater but allows for lag values of variables to be appended to a dataset. Lagged values are often used in time series data. Lags are specified with the lags argument which accepts a numeric vector. The lags number will specify how many preceding rows values to append as new column. Allows for grouping.

# Lagger example with 1, 2, and 3 lagged values appended
lagger(df_agg,
       order_vars   = 'date',
       group_vars   = NULL,
       measure_vars = c("metric1_sum"),
       lags = 1:3)
#> # A tibble: 90 x 6
#>    date       metric1_sum metric2_sum metric1_sum_lag1 metric1_sum_lag2
#>    <date>           <int>       <dbl>            <int>            <int>
#>  1 2018-08-29         321       5283.               NA               NA
#>  2 2018-08-30         281       4743.              321               NA
#>  3 2018-08-31         298       5626.              281              321
#>  4 2018-09-01         378       6334.              298              281
#>  5 2018-09-02         364       5987.              378              298
#>  6 2018-09-03         342       5822.              364              378
#>  7 2018-09-04         367       5843.              342              364
#>  8 2018-09-05         334       5541.              367              342
#>  9 2018-09-06         357       6069.              334              367
#> 10 2018-09-07         251       4557.              357              334
#> # ... with 80 more rows, and 1 more variable: metric1_sum_lag3 <int>
…
mean: missing values replaced by the mean of remaining values. Default function. Appropriate for numerical types

mode: missing values replaced by the mode (most common) of remaining values. Appropriate for integer or character types

constant: missing values replaced by constant fill value. Constant specified with additional fill argument

# Create dataset with missing values
na_n <- 100
df_na <- df %>% 
  slice(1:na_n) %>% 
  mutate(cat1 = ifelse(row_number() %in% sample(1:n(), na_n/4, replace = FALSE), NA, cat1),
         metric1 = ifelse(row_number() %in% sample(1:n(), na_n/10, replace = FALSE), NA, metric1)) 
df_na
#> # A tibble: 100 x 6
#>       id date       cat1  cat2  metric1 metric2
#>    <dbl> <date>     <chr> <chr>   <int>   <dbl>
#>  1   101 2018-09-15 A     V           4    52.2
#>  2   101 2018-08-29 <NA>  X           2    46.3
#>  3   101 2018-10-12 A     W           5    54.4
#>  4   101 2018-10-11 B     V           5    45.9
#>  5   101 2018-11-11 <NA>  V           3    55.4
#>  6   101 2018-09-24 A     Y           1    43.5
#>  7   101 2018-10-11 <NA>  V           2    55.1
#>  8   101 2018-08-30 A     W           5    45.9
#>  9   101 2018-10-21 A     X           5    51.6
#> 10   101 2018-11-23 A     X           1    51.8
#> # ... with 90 more rows

# Impute cat1 with mode
imputer(df_na,
        group_vars   = NULL,
        measure_vars = "cat1",
        fun          = "mode")
#> # A tibble: 100 x 6
#>       id date       cat1  cat2  metric1 metric2
#>    <dbl> <date>     <chr> <chr>   <int>   <dbl>
#>  1   101 2018-09-15 A     V           4    52.2
#>  2   101 2018-08-29 A     X           2    46.3
#>  3   101 2018-10-12 A     W           5    54.4
#>  4   101 2018-10-11 B     V           5    45.9
#>  5   101 2018-11-11 A     V           3    55.4
#>  6   101 2018-09-24 A     Y           1    43.5
#>  7   101 2018-10-11 A     V           2    55.1
#>  8   101 2018-08-30 A     W           5    45.9
#>  9   101 2018-10-21 A     X           5    51.6
#> 10   101 2018-11-23 A     X           1    51.8
#> # ... with 90 more rows
…
# Impute cat1 with constant
imputer(df_na,
        group_vars   = NULL,
        measure_vars = "cat1",
        fun          = "constant",
        fill         = "FILLED!")
#> # A tibble: 100 x 6
#>       id date       cat1    cat2  metric1 metric2
#>    <dbl> <date>     <chr>   <chr>   <int>   <dbl>
#>  1   101 2018-09-15 A       V           4    52.2
#>  2   101 2018-08-29 FILLED! X           2    46.3
#>  3   101 2018-10-12 A       W           5    54.4
#>  4   101 2018-10-11 B       V           5    45.9
#>  5   101 2018-11-11 FILLED! V           3    55.4
#>  6   101 2018-09-24 A       Y           1    43.5
#>  7   101 2018-10-11 FILLED! V           2    55.1
#>  8   101 2018-08-30 A       W           5    45.9
#>  9   101 2018-10-21 A       X           5    51.6
#> 10   101 2018-11-23 A       X           1    51.8
#> # ... with 90 more rows

# Impute metric1 with mean
imputer(df_na,
        group_vars   = NULL,
        measure_vars = "metric1",
        fun          = "mean")
#> # A tibble: 100 x 6
#>       id date       cat1  cat2  metric1 metric2
#>    <dbl> <date>     <chr> <chr>   <dbl>   <dbl>
#>  1   101 2018-09-15 A     V           4    52.2
#>  2   101 2018-08-29 <NA>  X           2    46.3
#>  3   101 2018-10-12 A     W           5    54.4
#>  4   101 2018-10-11 B     V           5    45.9
#>  5   101 2018-11-11 <NA>  V           3    55.4
#>  6   101 2018-09-24 A     Y           1    43.5
#>  7   101 2018-10-11 <NA>  V           2    55.1
#>  8   101 2018-08-30 A     W           5    45.9
#>  9   101 2018-10-21 A     X           5    51.6
#> 10   101 2018-11-23 A     X           1    51.8
#> # ... with 90 more rows
…
Pivoter

Pivoter reshapes data from long to wide format. This function is similar to the spread. Pivoter allows for multiple key-pairs to be spread across multiple columns however. Transforming datasets from long to wide form (or denormalizing a dataset) is a common step in statistical modeling workflows to convert data into matrix like format with a unique record per row required for most algorithms.

The id_vars argument here specifies which columns are to be preserved in the resulting output dataset. The group_vars argument specifies which column(s) unique values should be transformed into new columns. Group_vars should be attribute (categorical) columns with relatively low number of unique values. The measure_vars specify the columns converted to the values. Pivoter does accept a single fun argument. Pivoter has an argument for a fill value to apply to missing values created from the pivot. Zero is a commonly used fill value for pivoter. The sep argument can be modify to alter the output column naming convention

# simple pivoter example of pivoting cat1 by id and date for metric1
pivoter(df,
        id_vars      = c("id", "date"),
        group_vars   = "cat2",
        measure_vars = "metric1",
        fill         = 0) %>% 
  as.tibble()
#> # A tibble: 6,046 x 7
#>       id date       cat2_V_metric1 cat2_W_metric1 cat2_X_metric1
#>    <dbl> <date>              <dbl>          <dbl>          <dbl>
#>  1   101 2018-08-29              0              0              6
#>  2   101 2018-08-30              5              5              0
#>  3   101 2018-09-01              0              4              0
#>  4   101 2018-09-03              3              0              0
#>  5   101 2018-09-04              0              4              4
#>  6   101 2018-09-05              0              2              0
#>  7   101 2018-09-06              0              0              2
#>  8   101 2018-09-07              3              0              0
#>  9   101 2018-09-09              5              0              0
#> 10   101 2018-09-10              0              4              0
#> # ... with 6,036 more rows, and 2 more variables: cat2_Y_metric1 <dbl>,
#> #   cat2_Z_metric1 <dbl>

# Pivot with multiple measure vars
pivoter(df,
        id_vars      = c("id", "date"),
        group_vars   = "cat1", 
        measure_vars = c("metric1", "metric2"),
        fill         = 0) %>% 
  as.tibble()
#> # A tibble: 6,046 x 6
#>       id date       cat1_A_metric1 cat1_B_metric1 cat1_A_metric2
#>    <dbl> <date>              <dbl>          <dbl>          <dbl>
#>  1   101 2018-08-29              2              4           46.3
#>  2   101 2018-08-30              9              1           93.6
#>  3   101 2018-09-01              4              0           48.4
#>  4   101 2018-09-03              3              0           48.0
#>  5   101 2018-09-04              8              0           96.6
#>  6   101 2018-09-05              0              2            0  
#>  7   101 2018-09-06              0              2            0  
#>  8   101 2018-09-07              3              0           45.2
#>  9   101 2018-09-09              0              5            0  
#> 10   101 2018-09-10              4              0           44.9
#> # ... with 6,036 more rows, and 1 more variable: cat1_B_metric2 <dbl>

# Pivot with NULL sep and sum function
pivoter(df,
        id_vars      = "id",
        group_vars   = "cat2", 
        measure_vars = "metric1",
        sep          = NULL,
        fun          = "sum") %>% 
  as.tibble()
#> # A tibble: 100 x 6
#>       id     V     W     X     Y     Z
#>    <dbl> <int> <int> <int> <int> <int>
#>  1   101   136   107    28    23    12
#>  2   102   122   100    58    15    17
#>  3   103    98    89    69    32     6
#>  4   104   116   110    58    17    15
#>  5   105   116   112    59    14     3
#>  6   106   122    74    55    25    16
#>  7   107    98    97    81    22     5
#>  8   108   134   107    68     7    10
#>  9   109   108    96    54    18     7
#> 10   110   121    53    83    28    17
#> # ... with 90 more rows
…
Technically expander converts implicit missing values to explicit values. Expander allows the dataset to be expanded based on a sequence or set of unique values provided. Similar in scope to tidyr expand set of functions.

Expander has two ways to expand a dataset: either by specifying a set of id_vars and mode or by providing a set of values directly with the fun argument. The behavior of the expansion can be modified with the mode argument. Either the full cartesian product of the id_vars can be specified with mode = ‘crossing’ or just the unique observed pairs with mode = ‘nesting’.

Expander is useful when aggregated date-time data with attributes such as ids or other groups. Often there is a not a record for each attribute time unit combination which a simple aggregation will not account for. In a following example, expander is used in a pipeline to create an aggregate of average total metric1 per id per day. Notice, there is not a record in our dataset for all prior 90 days for each id.

# simple expander date example
df_101 <- df %>%
  filter(id == 101) %>%
  summariser(group_vars   = c("id", "date"),
             measure_vars = "metric1",
             fun          = "sum") %>% 
  arrange(date)
df_101
#> # A tibble: 68 x 3
#>       id date       metric1_sum
#>    <dbl> <date>           <int>
#>  1   101 2018-08-29           6
#>  2   101 2018-08-30          10
#>  3   101 2018-09-01           4
#>  4   101 2018-09-03           3
#>  5   101 2018-09-04           8
#>  6   101 2018-09-05           2
#>  7   101 2018-09-06           2
#>  8   101 2018-09-07           3
#>  9   101 2018-09-09           5
#> 10   101 2018-09-10           4
#> # ... with 58 more rows
…
